module api-mimbar

go 1.15

require (
	github.com/dgrijalva/jwt-go v3.2.0+incompatible
	github.com/gin-gonic/gin v1.6.3
	github.com/go-playground/validator/v10 v10.4.1
	github.com/go-sql-driver/mysql v1.5.0 // indirect
	github.com/golang/protobuf v1.4.3 // indirect
	github.com/json-iterator/go v1.1.10 // indirect
	github.com/leodido/go-urn v1.2.1 // indirect
	github.com/lib/pq v1.9.0 // indirect
	github.com/mattn/go-sqlite3 v1.14.6 // indirect
	github.com/modern-go/concurrent v0.0.0-20180306012644-bacd9c7ef1dd // indirect
	github.com/modern-go/reflect2 v1.0.1 // indirect
	github.com/pkg/errors v0.9.1 // indirect
	github.com/pressly/goose v2.6.0+incompatible // indirect
	github.com/ugorji/go v1.2.2 // indirect
	github.com/ziutek/mymysql v1.5.4 // indirect
	golang.org/x/crypto v0.0.0-20201221181555-eec23a3978ad
	golang.org/x/sys v0.0.0-20201231184435-2d18734c6014 // indirect
	golang.org/x/text v0.3.4 // indirect
	golang.org/x/xerrors v0.0.0-20200804184101-5ec99f83aff1 // indirect
	google.golang.org/protobuf v1.25.0 // indirect
	gopkg.in/yaml.v2 v2.4.0 // indirect
	gorm.io/driver/postgres v1.0.6
	gorm.io/gorm v1.20.9
)
